﻿{
  "profiles": {
    "WebApplication1": {
      "commandName": "Project",
      "dotnetRunMessages": true,
      "applicationUrl": "https://localhost:7018;http://localhost:5018",
      "environmentVariables": {
        "ASPNETCORE_ENVIRONMENT": "Development"
      }
    }
  }
}
